
{
  "component_id": "",
  "artifact_id": "{{ cookiecutter.component_id }}",
  "java_package_name": "{{ cookiecutter.component_id|replace('-', '') }}",
  "description": "We promise to update this description /{{cookiecutter.owner}}",
  "http_port": 8080
}
